{
  "type": "service_account",
  "project_id": "api-project-336908272147",
  "private_key_id": "77e4ee8075a62d7964a76be361f689b44c24154b",
  "private_key": "-----BEGIN PRIVATE KEY-----\nMIIEvgIBADANBgkqhkiG9w0BAQEFAASCBKgwggSkAgEAAoIBAQDJ5umld7pono9s\n4xXmppt1KPU8G+PtJP4APPnQkfN+1fFKa5K3T2m+G4+0DQgs6mhIKXd1K8CfhJNe\n8xGlrJf1g7fR94QmLFPj6TfLuyChdPh1sn/dwWsxpuaSSQavoohHzsAdwDQuoCXb\nAAgLd3D8FfDMpFy+aI6DkH39nvQf6f4QcLpxMQihiM1MOaq3Rpi9YY1BR2lC2EDR\nmNi8SPTzym69mKxi52EE2HEAwKyWQNFFtbh6LqQldQFy2FNnstoAVo8HNwKL7evg\nTS9M3BHzlNTgsO0wbOgeSrVXgdWVTti0vK9C6XIXNzE9xUIxeQwLu6WQcQNM+ehX\n7Ca3xvf9AgMBAAECggEABNu6mZG0+Zl/KAaa2079BKe0pvqg1G8EcasF89/fNRke\n0kSeZizSBZISNinuHW6SjdH5nucrnmsJRMqijRMHIRBHVxUWp/h/GEffYNai5V+0\nLtjZvNNPqgUzHSgGsik+EERIWS7r0odmAcwRZX09ScOZZMM7vBU2ALJ0ZaryguYK\nlwAFuYfV6Zt8632CZYfpv3s+i9UC/aU/+93UxSVHMkKXzlECbuh7LqbWHPOkKYjL\nvGohojgfCUO8hBCnh3ajDIy50bXIpEYq87BzzjJGKfyse8Ei6OTi0ZcQa6nW2HqM\nn2rvNFLueBH5ih3qAkf1MZ3bVEtH9x+/QVlmnv5awQKBgQDklDU7I2k93tyTtbXI\nJHWl7n7vNS3kXBntgc5+lQB4HWoY9d+tWfBjPoc//yqTmQjOvS750FjpMNiqbmWt\ndSQRBN74HQDZoVivUNwkhy62zaTk9aeTmeX1RadWKPxBPbR8wxkZP1EL7O0CTNjB\nNqklCMBZpONOXTcWSauv+t5xkQKBgQDiH3DJkBV6VVt1p6chOktNfRIDp9ltGA3E\nRuRib60UNQ0MGG6wJ39WOZIpvE9NO2Y7J09hluGzln6BlLwWwAuJUTc+2/2cU3s5\n/HbOR15nR+QsPJb1lek1AEQ+HCLMS7BB+dPcQzU/NHHbKYEuUf2adZS15kKBFh5Q\nqQLxuQQprQKBgQC3FZMRfEqWmQRad6hT2Ag30TDwzsqkZ7UIzPkl4JkQnJbXyVDQ\n3AI0q+fPNcXXlTM9zMBsrhoZJdvVnzln1zT9QMaLO0fsCVUsj3rU80ZSe6MBFVaV\nXiaX76OZ2pg6dX80k1xuIY38HFi2h/DxyaNvm3PeGblLklRGUNnoyesUUQKBgEf1\nqXb7m1oq/8gZal5wprYqLylqqQ7GsNrdlKCe2X2sxFItFEyKxUMzXwhZHQN++7Gn\neOOdmIYGRowGQTUcOI+igOpIKBUvm++AIG7U134Wqs5JGeFdq7FqPE1ntss86wKT\n9pAJ81AB6JnOQ4XyIbqd4I1ikZdy6oLQxlcWgfShAoGBAJKC2BASXDpGbaEgUjLI\npGR0Ex9BhJpyfw+8nLXDiewaG1sew6JWjVxF5+i7b04ylFSjrm/A8m+6jLP9X+hx\niu3Vk3p3uhXpLhaYwb2hSGJhNYEn5ulTscNy8suj/krBH2gUtty4oz7fMJgA3PG/\nP9pknxJgZ4KpnY0o4wQYOFnV\n-----END PRIVATE KEY-----\n",
  "client_email": "apiga-737@api-project-336908272147.iam.gserviceaccount.com",
  "client_id": "109523065102914431426",
  "auth_uri": "https://accounts.google.com/o/oauth2/auth",
  "token_uri": "https://accounts.google.com/o/oauth2/token",
  "auth_provider_x509_cert_url": "https://www.googleapis.com/oauth2/v1/certs",
  "client_x509_cert_url": "https://www.googleapis.com/robot/v1/metadata/x509/apiga-737%40api-project-336908272147.iam.gserviceaccount.com"
}
